{
    "roc": [
        {
            "fpr": 0.0,
            "tpr": 0.0,
            "threshold": 1.996116716770823
        },
        {
            "fpr": 0.0,
            "tpr": 0.001597444089456869,
            "threshold": 0.996116716770823
        },
        {
            "fpr": 0.0,
            "tpr": 0.13578274760383385,
            "threshold": 0.9272956421210613
        },
        {
            "fpr": 0.000725689404934688,
            "tpr": 0.13578274760383385,
            "threshold": 0.9270397107441332
        },
        {
            "fpr": 0.000725689404934688,
            "tpr": 0.3450479233226837,
            "threshold": 0.8289860204527121
        },
        {
            "fpr": 0.001451378809869376,
            "tpr": 0.3450479233226837,
            "threshold": 0.827866860647852
        },
        {
            "fpr": 0.001451378809869376,
            "tpr": 0.35782747603833864,
            "threshold": 0.8234821114605657
        },
        {
            "fpr": 0.0021770682148040637,
            "tpr": 0.35782747603833864,
            "threshold": 0.8223256350065337
        },
        {
            "fpr": 0.0021770682148040637,
            "tpr": 0.365814696485623,
            "threshold": 0.816591306619016
        },
        {
            "fpr": 0.002902757619738752,
            "tpr": 0.365814696485623,
            "threshold": 0.8150415545381864
        },
        {
            "fpr": 0.002902757619738752,
            "tpr": 0.4329073482428115,
            "threshold": 0.7687937317540572
        },
        {
            "fpr": 0.00362844702467344,
            "tpr": 0.4329073482428115,
            "threshold": 0.7684580287300621
        },
        {
            "fpr": 0.00362844702467344,
            "tpr": 0.45527156549520764,
            "threshold": 0.755524173227037
        },
        {
            "fpr": 0.0043541364296081275,
            "tpr": 0.45527156549520764,
            "threshold": 0.7547967361560326
        },
        {
            "fpr": 0.0043541364296081275,
            "tpr": 0.560702875399361,
            "threshold": 0.6624393120127321
        },
        {
            "fpr": 0.0050798258345428155,
            "tpr": 0.560702875399361,
            "threshold": 0.6607347162135403
        },
        {
            "fpr": 0.0050798258345428155,
            "tpr": 0.5638977635782748,
            "threshold": 0.6596980905195798
        },
        {
            "fpr": 0.005805515239477504,
            "tpr": 0.5638977635782748,
            "threshold": 0.6584922203871224
        },
        {
            "fpr": 0.005805515239477504,
            "tpr": 0.5702875399361023,
            "threshold": 0.6545841622551778
        },
        {
            "fpr": 0.006531204644412192,
            "tpr": 0.5702875399361023,
            "threshold": 0.6543979245064648
        },
        {
            "fpr": 0.006531204644412192,
            "tpr": 0.5846645367412141,
            "threshold": 0.6434264563961094
        },
        {
            "fpr": 0.00725689404934688,
            "tpr": 0.5846645367412141,
            "threshold": 0.6422372103933661
        },
        {
            "fpr": 0.00725689404934688,
            "tpr": 0.5878594249201278,
            "threshold": 0.6355242078746778
        },
        {
            "fpr": 0.007982583454281567,
            "tpr": 0.5878594249201278,
            "threshold": 0.635127755394206
        },
        {
            "fpr": 0.007982583454281567,
            "tpr": 0.5942492012779552,
            "threshold": 0.6338645031897062
        },
        {
            "fpr": 0.008708272859216255,
            "tpr": 0.5942492012779552,
            "threshold": 0.6329347401290462
        },
        {
            "fpr": 0.008708272859216255,
            "tpr": 0.6006389776357828,
            "threshold": 0.6271293673964746
        },
        {
            "fpr": 0.009433962264150943,
            "tpr": 0.6006389776357828,
            "threshold": 0.626064270576555
        },
        {
            "fpr": 0.009433962264150943,
            "tpr": 0.6022364217252396,
            "threshold": 0.6246784959655034
        },
        {
            "fpr": 0.010159651669085631,
            "tpr": 0.6022364217252396,
            "threshold": 0.6244334912960551
        },
        {
            "fpr": 0.010159651669085631,
            "tpr": 0.6405750798722045,
            "threshold": 0.5865891160119997
        },
        {
            "fpr": 0.012336719883889695,
            "tpr": 0.6405750798722045,
            "threshold": 0.5818683615141628
        },
        {
            "fpr": 0.012336719883889695,
            "tpr": 0.6421725239616614,
            "threshold": 0.5804445233175636
        },
        {
            "fpr": 0.013062409288824383,
            "tpr": 0.6421725239616614,
            "threshold": 0.5788092929892236
        },
        {
            "fpr": 0.013062409288824383,
            "tpr": 0.6437699680511182,
            "threshold": 0.5787545319966
        },
        {
            "fpr": 0.01451378809869376,
            "tpr": 0.6437699680511182,
            "threshold": 0.5778707196399739
        },
        {
            "fpr": 0.01451378809869376,
            "tpr": 0.6613418530351438,
            "threshold": 0.5642659839636461
        },
        {
            "fpr": 0.016690856313497822,
            "tpr": 0.6613418530351438,
            "threshold": 0.5513856713186105
        },
        {
            "fpr": 0.016690856313497822,
            "tpr": 0.6661341853035144,
            "threshold": 0.549521411047071
        },
        {
            "fpr": 0.018142235123367198,
            "tpr": 0.6661341853035144,
            "threshold": 0.5470012976461353
        },
        {
            "fpr": 0.018142235123367198,
            "tpr": 0.6677316293929713,
            "threshold": 0.5450806115536788
        },
        {
            "fpr": 0.018867924528301886,
            "tpr": 0.6677316293929713,
            "threshold": 0.5448618376116561
        },
        {
            "fpr": 0.018867924528301886,
            "tpr": 0.6725239616613419,
            "threshold": 0.541904450171952
        },
        {
            "fpr": 0.019593613933236574,
            "tpr": 0.6725239616613419,
            "threshold": 0.5405797074556435
        },
        {
            "fpr": 0.019593613933236574,
            "tpr": 0.6853035143769968,
            "threshold": 0.5317356852461627
        },
        {
            "fpr": 0.020319303338171262,
            "tpr": 0.6853035143769968,
            "threshold": 0.5289479462935295
        },
        {
            "fpr": 0.020319303338171262,
            "tpr": 0.6869009584664537,
            "threshold": 0.5285663979729747
        },
        {
            "fpr": 0.02104499274310595,
            "tpr": 0.6869009584664537,
            "threshold": 0.527718833249146
        },
        {
            "fpr": 0.02104499274310595,
            "tpr": 0.6932907348242812,
            "threshold": 0.5251240352937766
        },
        {
            "fpr": 0.02539912917271408,
            "tpr": 0.6932907348242812,
            "threshold": 0.5182899929824736
        },
        {
            "fpr": 0.02539912917271408,
            "tpr": 0.6996805111821086,
            "threshold": 0.506341509502578
        },
        {
            "fpr": 0.02830188679245283,
            "tpr": 0.6996805111821086,
            "threshold": 0.502068512536756
        },
        {
            "fpr": 0.02830188679245283,
            "tpr": 0.7028753993610224,
            "threshold": 0.5012028520177165
        },
        {
            "fpr": 0.02902757619738752,
            "tpr": 0.7028753993610224,
            "threshold": 0.5004661591703683
        },
        {
            "fpr": 0.02902757619738752,
            "tpr": 0.7060702875399361,
            "threshold": 0.4991236230206273
        },
        {
            "fpr": 0.030478955007256895,
            "tpr": 0.7060702875399361,
            "threshold": 0.4965887664162937
        },
        {
            "fpr": 0.030478955007256895,
            "tpr": 0.7108626198083067,
            "threshold": 0.4919666634966798
        },
        {
            "fpr": 0.03193033381712627,
            "tpr": 0.7108626198083067,
            "threshold": 0.48966445086881266
        },
        {
            "fpr": 0.03193033381712627,
            "tpr": 0.7124600638977636,
            "threshold": 0.4884038036269307
        },
        {
            "fpr": 0.03265602322206096,
            "tpr": 0.7124600638977636,
            "threshold": 0.4876202065651888
        },
        {
            "fpr": 0.03265602322206096,
            "tpr": 0.7188498402555911,
            "threshold": 0.484050410497097
        },
        {
            "fpr": 0.034107402031930335,
            "tpr": 0.7188498402555911,
            "threshold": 0.48374598067287633
        },
        {
            "fpr": 0.034107402031930335,
            "tpr": 0.7204472843450479,
            "threshold": 0.4814240553259658
        },
        {
            "fpr": 0.03483309143686502,
            "tpr": 0.7204472843450479,
            "threshold": 0.481102730206469
        },
        {
            "fpr": 0.03483309143686502,
            "tpr": 0.7252396166134185,
            "threshold": 0.4769188432787799
        },
        {
            "fpr": 0.03701015965166909,
            "tpr": 0.7252396166134185,
            "threshold": 0.4745670858555032
        },
        {
            "fpr": 0.03701015965166909,
            "tpr": 0.7364217252396166,
            "threshold": 0.4711659262770292
        },
        {
            "fpr": 0.038461538461538464,
            "tpr": 0.7364217252396166,
            "threshold": 0.46613110605561386
        },
        {
            "fpr": 0.038461538461538464,
            "tpr": 0.7380191693290735,
            "threshold": 0.4657585759555342
        },
        {
            "fpr": 0.0420899854862119,
            "tpr": 0.7380191693290735,
            "threshold": 0.46167328510632644
        },
        {
            "fpr": 0.0420899854862119,
            "tpr": 0.7396166134185304,
            "threshold": 0.4609595130542048
        },
        {
            "fpr": 0.04716981132075472,
            "tpr": 0.7396166134185304,
            "threshold": 0.45587459479377607
        },
        {
            "fpr": 0.04716981132075472,
            "tpr": 0.7412140575079872,
            "threshold": 0.45444887040950877
        },
        {
            "fpr": 0.04862119013062409,
            "tpr": 0.7412140575079872,
            "threshold": 0.4509139633583716
        },
        {
            "fpr": 0.04862119013062409,
            "tpr": 0.744408945686901,
            "threshold": 0.45074335855608366
        },
        {
            "fpr": 0.04934687953555878,
            "tpr": 0.744408945686901,
            "threshold": 0.45064826233398736
        },
        {
            "fpr": 0.04934687953555878,
            "tpr": 0.7460063897763578,
            "threshold": 0.4486896500645431
        },
        {
            "fpr": 0.05297532656023222,
            "tpr": 0.7460063897763578,
            "threshold": 0.44695208876876985
        },
        {
            "fpr": 0.05297532656023222,
            "tpr": 0.7507987220447284,
            "threshold": 0.44190590683946723
        },
        {
            "fpr": 0.05370101596516691,
            "tpr": 0.7507987220447284,
            "threshold": 0.4413817996255218
        },
        {
            "fpr": 0.05370101596516691,
            "tpr": 0.7523961661341853,
            "threshold": 0.44129911016564577
        },
        {
            "fpr": 0.05370101596516691,
            "tpr": 0.755591054313099,
            "threshold": 0.44128581238377435
        },
        {
            "fpr": 0.05370101596516691,
            "tpr": 0.7635782747603834,
            "threshold": 0.4363384383996818
        },
        {
            "fpr": 0.055152394775036286,
            "tpr": 0.7635782747603834,
            "threshold": 0.4343730515889686
        },
        {
            "fpr": 0.055152394775036286,
            "tpr": 0.7651757188498403,
            "threshold": 0.43334013926019854
        },
        {
            "fpr": 0.05660377358490566,
            "tpr": 0.7651757188498403,
            "threshold": 0.4313755072328725
        },
        {
            "fpr": 0.05660377358490566,
            "tpr": 0.768370607028754,
            "threshold": 0.4278941267267583
        },
        {
            "fpr": 0.057329462989840346,
            "tpr": 0.768370607028754,
            "threshold": 0.4278924868441913
        },
        {
            "fpr": 0.057329462989840346,
            "tpr": 0.7715654952076677,
            "threshold": 0.4261169164291364
        },
        {
            "fpr": 0.05805515239477504,
            "tpr": 0.7715654952076677,
            "threshold": 0.42589758218288787
        },
        {
            "fpr": 0.05805515239477504,
            "tpr": 0.7731629392971247,
            "threshold": 0.4240861409281237
        },
        {
            "fpr": 0.05878084179970972,
            "tpr": 0.7731629392971247,
            "threshold": 0.4237989327869334
        },
        {
            "fpr": 0.05878084179970972,
            "tpr": 0.7763578274760383,
            "threshold": 0.42116365518670057
        },
        {
            "fpr": 0.0602322206095791,
            "tpr": 0.7763578274760383,
            "threshold": 0.4201307059346589
        },
        {
            "fpr": 0.0602322206095791,
            "tpr": 0.7779552715654952,
            "threshold": 0.4178482293450688
        },
        {
            "fpr": 0.061683599419448475,
            "tpr": 0.7779552715654952,
            "threshold": 0.4137637336542187
        },
        {
            "fpr": 0.061683599419448475,
            "tpr": 0.7843450479233227,
            "threshold": 0.41030570929848004
        },
        {
            "fpr": 0.06821480406386067,
            "tpr": 0.7843450479233227,
            "threshold": 0.4054318626506144
        },
        {
            "fpr": 0.06821480406386067,
            "tpr": 0.7859424920127795,
            "threshold": 0.4053751724066004
        },
        {
            "fpr": 0.07111756168359942,
            "tpr": 0.7859424920127795,
            "threshold": 0.4021863285860441
        },
        {
            "fpr": 0.07111756168359942,
            "tpr": 0.7907348242811502,
            "threshold": 0.3995779608177999
        },
        {
            "fpr": 0.07329462989840348,
            "tpr": 0.7907348242811502,
            "threshold": 0.3951161321338559
        },
        {
            "fpr": 0.07329462989840348,
            "tpr": 0.792332268370607,
            "threshold": 0.39412158655347646
        },
        {
            "fpr": 0.07619738751814223,
            "tpr": 0.792332268370607,
            "threshold": 0.3878357891512985
        },
        {
            "fpr": 0.07619738751814223,
            "tpr": 0.7939297124600639,
            "threshold": 0.3875318900506876
        },
        {
            "fpr": 0.08055152394775036,
            "tpr": 0.7939297124600639,
            "threshold": 0.3824447368994863
        },
        {
            "fpr": 0.08055152394775036,
            "tpr": 0.7955271565495208,
            "threshold": 0.38233710364669193
        },
        {
            "fpr": 0.08200290275761973,
            "tpr": 0.7955271565495208,
            "threshold": 0.38100772014643897
        },
        {
            "fpr": 0.08200290275761973,
            "tpr": 0.7971246006389776,
            "threshold": 0.38056599113131023
        },
        {
            "fpr": 0.08272859216255443,
            "tpr": 0.7971246006389776,
            "threshold": 0.37970748912342406
        },
        {
            "fpr": 0.08272859216255443,
            "tpr": 0.8003194888178914,
            "threshold": 0.37806636331673615
        },
        {
            "fpr": 0.08490566037735849,
            "tpr": 0.8003194888178914,
            "threshold": 0.37416603257840336
        },
        {
            "fpr": 0.08490566037735849,
            "tpr": 0.8019169329073482,
            "threshold": 0.3740078864344316
        },
        {
            "fpr": 0.08780841799709724,
            "tpr": 0.8019169329073482,
            "threshold": 0.3707016981480021
        },
        {
            "fpr": 0.08780841799709724,
            "tpr": 0.8083067092651757,
            "threshold": 0.36870025563743325
        },
        {
            "fpr": 0.08925979680696662,
            "tpr": 0.8083067092651757,
            "threshold": 0.36719666943019874
        },
        {
            "fpr": 0.08925979680696662,
            "tpr": 0.8099041533546326,
            "threshold": 0.36717279471233155
        },
        {
            "fpr": 0.0899854862119013,
            "tpr": 0.8099041533546326,
            "threshold": 0.3668790661931856
        },
        {
            "fpr": 0.0899854862119013,
            "tpr": 0.8130990415335463,
            "threshold": 0.3661916231610298
        },
        {
            "fpr": 0.09143686502177069,
            "tpr": 0.8130990415335463,
            "threshold": 0.3648382684401561
        },
        {
            "fpr": 0.09143686502177069,
            "tpr": 0.8146964856230032,
            "threshold": 0.3634178952833909
        },
        {
            "fpr": 0.09216255442670537,
            "tpr": 0.8146964856230032,
            "threshold": 0.36341320643736297
        },
        {
            "fpr": 0.09216255442670537,
            "tpr": 0.8210862619808307,
            "threshold": 0.3624756655942891
        },
        {
            "fpr": 0.09433962264150944,
            "tpr": 0.8210862619808307,
            "threshold": 0.36110729835835925
        },
        {
            "fpr": 0.09433962264150944,
            "tpr": 0.8226837060702875,
            "threshold": 0.36103849193770293
        },
        {
            "fpr": 0.0965166908563135,
            "tpr": 0.8226837060702875,
            "threshold": 0.3581414787914228
        },
        {
            "fpr": 0.0965166908563135,
            "tpr": 0.8242811501597445,
            "threshold": 0.3572433926597214
        },
        {
            "fpr": 0.09724238026124818,
            "tpr": 0.8242811501597445,
            "threshold": 0.3559532279242811
        },
        {
            "fpr": 0.09724238026124818,
            "tpr": 0.8258785942492013,
            "threshold": 0.3559355783062258
        },
        {
            "fpr": 0.09869375907111756,
            "tpr": 0.8258785942492013,
            "threshold": 0.35450311219486386
        },
        {
            "fpr": 0.09869375907111756,
            "tpr": 0.829073482428115,
            "threshold": 0.3538842779435244
        },
        {
            "fpr": 0.10014513788098693,
            "tpr": 0.829073482428115,
            "threshold": 0.35105801337099907
        },
        {
            "fpr": 0.10014513788098693,
            "tpr": 0.8306709265175719,
            "threshold": 0.3505138791250373
        },
        {
            "fpr": 0.10304789550072568,
            "tpr": 0.8306709265175719,
            "threshold": 0.3484443137154621
        },
        {
            "fpr": 0.10304789550072568,
            "tpr": 0.8322683706070287,
            "threshold": 0.3480150510360635
        },
        {
            "fpr": 0.10522496371552975,
            "tpr": 0.8322683706070287,
            "threshold": 0.34481138225630514
        },
        {
            "fpr": 0.10522496371552975,
            "tpr": 0.8338658146964856,
            "threshold": 0.34456468780989696
        },
        {
            "fpr": 0.10667634252539913,
            "tpr": 0.8338658146964856,
            "threshold": 0.3428163733255657
        },
        {
            "fpr": 0.10667634252539913,
            "tpr": 0.8386581469648562,
            "threshold": 0.34032413805253703
        },
        {
            "fpr": 0.1081277213352685,
            "tpr": 0.8386581469648562,
            "threshold": 0.3352327480751898
        },
        {
            "fpr": 0.1081277213352685,
            "tpr": 0.8450479233226837,
            "threshold": 0.33358261336919426
        },
        {
            "fpr": 0.11103047895500726,
            "tpr": 0.8450479233226837,
            "threshold": 0.3308986463755814
        },
        {
            "fpr": 0.11103047895500726,
            "tpr": 0.8466453674121406,
            "threshold": 0.3303769564606877
        },
        {
            "fpr": 0.11465892597968069,
            "tpr": 0.8466453674121406,
            "threshold": 0.32769315267344706
        },
        {
            "fpr": 0.11465892597968069,
            "tpr": 0.8482428115015974,
            "threshold": 0.32646982891035814
        },
        {
            "fpr": 0.11611030478955008,
            "tpr": 0.8482428115015974,
            "threshold": 0.3257745104561069
        },
        {
            "fpr": 0.11611030478955008,
            "tpr": 0.8498402555910544,
            "threshold": 0.3255432017292687
        },
        {
            "fpr": 0.12481857764876633,
            "tpr": 0.8498402555910544,
            "threshold": 0.3137594649142453
        },
        {
            "fpr": 0.12481857764876633,
            "tpr": 0.853035143769968,
            "threshold": 0.3133394942549213
        },
        {
            "fpr": 0.1269956458635704,
            "tpr": 0.853035143769968,
            "threshold": 0.3111279108014985
        },
        {
            "fpr": 0.1269956458635704,
            "tpr": 0.8562300319488818,
            "threshold": 0.3097477007931625
        },
        {
            "fpr": 0.13062409288824384,
            "tpr": 0.8562300319488818,
            "threshold": 0.3082903382658373
        },
        {
            "fpr": 0.13062409288824384,
            "tpr": 0.8578274760383386,
            "threshold": 0.3073728157001342
        },
        {
            "fpr": 0.1320754716981132,
            "tpr": 0.8578274760383386,
            "threshold": 0.30559018832117174
        },
        {
            "fpr": 0.1320754716981132,
            "tpr": 0.8594249201277955,
            "threshold": 0.30515102905582103
        },
        {
            "fpr": 0.13642960812772134,
            "tpr": 0.8594249201277955,
            "threshold": 0.30089847135049375
        },
        {
            "fpr": 0.13642960812772134,
            "tpr": 0.8610223642172524,
            "threshold": 0.3005317830179456
        },
        {
            "fpr": 0.1378809869375907,
            "tpr": 0.8610223642172524,
            "threshold": 0.29916667663340474
        },
        {
            "fpr": 0.1378809869375907,
            "tpr": 0.8642172523961661,
            "threshold": 0.2979302608058692
        },
        {
            "fpr": 0.14296081277213352,
            "tpr": 0.8642172523961661,
            "threshold": 0.2942658927808938
        },
        {
            "fpr": 0.14296081277213352,
            "tpr": 0.8674121405750799,
            "threshold": 0.29332711406846945
        },
        {
            "fpr": 0.14658925979680695,
            "tpr": 0.8674121405750799,
            "threshold": 0.289363187438171
        },
        {
            "fpr": 0.14658925979680695,
            "tpr": 0.8690095846645367,
            "threshold": 0.28934201632833023
        },
        {
            "fpr": 0.15312046444121916,
            "tpr": 0.8690095846645367,
            "threshold": 0.28625010126102135
        },
        {
            "fpr": 0.15312046444121916,
            "tpr": 0.8706070287539937,
            "threshold": 0.2853724687005252
        },
        {
            "fpr": 0.16690856313497823,
            "tpr": 0.8706070287539937,
            "threshold": 0.27919681076427144
        },
        {
            "fpr": 0.16690856313497823,
            "tpr": 0.8722044728434505,
            "threshold": 0.2789243708931043
        },
        {
            "fpr": 0.1683599419448476,
            "tpr": 0.8722044728434505,
            "threshold": 0.27657537093509355
        },
        {
            "fpr": 0.1683599419448476,
            "tpr": 0.8753993610223643,
            "threshold": 0.2753307997214121
        },
        {
            "fpr": 0.1690856313497823,
            "tpr": 0.8753993610223643,
            "threshold": 0.27315737851837957
        },
        {
            "fpr": 0.1690856313497823,
            "tpr": 0.8769968051118211,
            "threshold": 0.27291867729773733
        },
        {
            "fpr": 0.17053701015965167,
            "tpr": 0.8769968051118211,
            "threshold": 0.2722912542512704
        },
        {
            "fpr": 0.17053701015965167,
            "tpr": 0.8785942492012779,
            "threshold": 0.2710146811590223
        },
        {
            "fpr": 0.17198838896952104,
            "tpr": 0.8785942492012779,
            "threshold": 0.270312372409897
        },
        {
            "fpr": 0.17198838896952104,
            "tpr": 0.8801916932907349,
            "threshold": 0.2680781973203421
        },
        {
            "fpr": 0.1734397677793904,
            "tpr": 0.8801916932907349,
            "threshold": 0.2674019679242756
        },
        {
            "fpr": 0.1734397677793904,
            "tpr": 0.8833865814696485,
            "threshold": 0.26688282342167324
        },
        {
            "fpr": 0.1741654571843251,
            "tpr": 0.8833865814696485,
            "threshold": 0.2668129368781987
        },
        {
            "fpr": 0.1741654571843251,
            "tpr": 0.8849840255591054,
            "threshold": 0.26672775301245355
        },
        {
            "fpr": 0.1799709724238026,
            "tpr": 0.8849840255591054,
            "threshold": 0.26320534178728794
        },
        {
            "fpr": 0.1799709724238026,
            "tpr": 0.8865814696485623,
            "threshold": 0.26292360959194916
        },
        {
            "fpr": 0.18795355587808418,
            "tpr": 0.8865814696485623,
            "threshold": 0.2597760823893891
        },
        {
            "fpr": 0.18795355587808418,
            "tpr": 0.8881789137380192,
            "threshold": 0.2597227724207358
        },
        {
            "fpr": 0.19013062409288825,
            "tpr": 0.8881789137380192,
            "threshold": 0.2592334434400125
        },
        {
            "fpr": 0.19013062409288825,
            "tpr": 0.889776357827476,
            "threshold": 0.25852341579959254
        },
        {
            "fpr": 0.19593613933236576,
            "tpr": 0.889776357827476,
            "threshold": 0.2533486618067178
        },
        {
            "fpr": 0.19593613933236576,
            "tpr": 0.8913738019169329,
            "threshold": 0.25241849287561985
        },
        {
            "fpr": 0.1995645863570392,
            "tpr": 0.8913738019169329,
            "threshold": 0.2506839411418071
        },
        {
            "fpr": 0.1995645863570392,
            "tpr": 0.8945686900958466,
            "threshold": 0.24995502484468965
        },
        {
            "fpr": 0.20029027576197386,
            "tpr": 0.8945686900958466,
            "threshold": 0.24985305694950846
        },
        {
            "fpr": 0.20029027576197386,
            "tpr": 0.8961661341853036,
            "threshold": 0.24954053260849077
        },
        {
            "fpr": 0.2053701015965167,
            "tpr": 0.8961661341853036,
            "threshold": 0.2470909197373761
        },
        {
            "fpr": 0.2053701015965167,
            "tpr": 0.8977635782747604,
            "threshold": 0.2464158185008535
        },
        {
            "fpr": 0.20899854862119013,
            "tpr": 0.8977635782747604,
            "threshold": 0.2443254237740772
        },
        {
            "fpr": 0.20899854862119013,
            "tpr": 0.8993610223642172,
            "threshold": 0.24402728834727924
        },
        {
            "fpr": 0.21480406386066764,
            "tpr": 0.8993610223642172,
            "threshold": 0.24077971700914425
        },
        {
            "fpr": 0.21480406386066764,
            "tpr": 0.9009584664536742,
            "threshold": 0.24059449214612474
        },
        {
            "fpr": 0.22351233671988388,
            "tpr": 0.9009584664536742,
            "threshold": 0.23523047932675273
        },
        {
            "fpr": 0.22351233671988388,
            "tpr": 0.902555910543131,
            "threshold": 0.2346482994658034
        },
        {
            "fpr": 0.23076923076923078,
            "tpr": 0.902555910543131,
            "threshold": 0.23057363213594403
        },
        {
            "fpr": 0.23076923076923078,
            "tpr": 0.9041533546325878,
            "threshold": 0.23023216329757293
        },
        {
            "fpr": 0.23149492017416545,
            "tpr": 0.9041533546325878,
            "threshold": 0.22974825555913395
        },
        {
            "fpr": 0.23367198838896952,
            "tpr": 0.9057507987220448,
            "threshold": 0.22942679854497874
        },
        {
            "fpr": 0.24310595065312046,
            "tpr": 0.9057507987220448,
            "threshold": 0.2216453965096886
        },
        {
            "fpr": 0.24310595065312046,
            "tpr": 0.9073482428115016,
            "threshold": 0.221635317481651
        },
        {
            "fpr": 0.24383164005805516,
            "tpr": 0.9073482428115016,
            "threshold": 0.22158734947557046
        },
        {
            "fpr": 0.24383164005805516,
            "tpr": 0.9089456869009584,
            "threshold": 0.22076300762792017
        },
        {
            "fpr": 0.251088534107402,
            "tpr": 0.9089456869009584,
            "threshold": 0.21639316943874415
        },
        {
            "fpr": 0.251088534107402,
            "tpr": 0.9105431309904153,
            "threshold": 0.21637509123368917
        },
        {
            "fpr": 0.27503628447024675,
            "tpr": 0.9105431309904153,
            "threshold": 0.2072526729684097
        },
        {
            "fpr": 0.27503628447024675,
            "tpr": 0.9121405750798722,
            "threshold": 0.20696560274044462
        },
        {
            "fpr": 0.2793904208998549,
            "tpr": 0.9121405750798722,
            "threshold": 0.20324985381542593
        },
        {
            "fpr": 0.2793904208998549,
            "tpr": 0.9137380191693291,
            "threshold": 0.2030788442609743
        },
        {
            "fpr": 0.29172714078374457,
            "tpr": 0.9137380191693291,
            "threshold": 0.19925374309313718
        },
        {
            "fpr": 0.29172714078374457,
            "tpr": 0.9169329073482428,
            "threshold": 0.19836714276573011
        },
        {
            "fpr": 0.3033381712626996,
            "tpr": 0.9169329073482428,
            "threshold": 0.19056745368800462
        },
        {
            "fpr": 0.3033381712626996,
            "tpr": 0.9185303514376997,
            "threshold": 0.19022681175866432
        },
        {
            "fpr": 0.31059506531204645,
            "tpr": 0.9185303514376997,
            "threshold": 0.1883381693822555
        },
        {
            "fpr": 0.31059506531204645,
            "tpr": 0.9201277955271565,
            "threshold": 0.18785789276123574
        },
        {
            "fpr": 0.3134978229317852,
            "tpr": 0.9201277955271565,
            "threshold": 0.18595261228632787
        },
        {
            "fpr": 0.3134978229317852,
            "tpr": 0.9217252396166135,
            "threshold": 0.1851418547017457
        },
        {
            "fpr": 0.31567489114658925,
            "tpr": 0.9217252396166135,
            "threshold": 0.1844073542137111
        },
        {
            "fpr": 0.31567489114658925,
            "tpr": 0.9233226837060703,
            "threshold": 0.18347249197842494
        },
        {
            "fpr": 0.3164005805515239,
            "tpr": 0.9233226837060703,
            "threshold": 0.1834705102992486
        },
        {
            "fpr": 0.3164005805515239,
            "tpr": 0.9249201277955271,
            "threshold": 0.18344423000445897
        },
        {
            "fpr": 0.32075471698113206,
            "tpr": 0.9249201277955271,
            "threshold": 0.18052490421272108
        },
        {
            "fpr": 0.32075471698113206,
            "tpr": 0.9265175718849841,
            "threshold": 0.1805023030407721
        },
        {
            "fpr": 0.32220609579100146,
            "tpr": 0.9265175718849841,
            "threshold": 0.17995959837788575
        },
        {
            "fpr": 0.32220609579100146,
            "tpr": 0.9313099041533547,
            "threshold": 0.17910894081919249
        },
        {
            "fpr": 0.32873730043541366,
            "tpr": 0.9313099041533547,
            "threshold": 0.17648225473463128
        },
        {
            "fpr": 0.32873730043541366,
            "tpr": 0.9329073482428115,
            "threshold": 0.1761509334080534
        },
        {
            "fpr": 0.3381712626995646,
            "tpr": 0.9329073482428115,
            "threshold": 0.17289701889833656
        },
        {
            "fpr": 0.3381712626995646,
            "tpr": 0.9345047923322684,
            "threshold": 0.1725111100176922
        },
        {
            "fpr": 0.33962264150943394,
            "tpr": 0.9345047923322684,
            "threshold": 0.172390930692114
        },
        {
            "fpr": 0.34034833091436867,
            "tpr": 0.9361022364217252,
            "threshold": 0.1720680731322224
        },
        {
            "fpr": 0.341799709724238,
            "tpr": 0.9361022364217252,
            "threshold": 0.1716414716604403
        },
        {
            "fpr": 0.341799709724238,
            "tpr": 0.9376996805111821,
            "threshold": 0.17152451963135193
        },
        {
            "fpr": 0.35413642960812775,
            "tpr": 0.9376996805111821,
            "threshold": 0.16737164536574878
        },
        {
            "fpr": 0.35413642960812775,
            "tpr": 0.939297124600639,
            "threshold": 0.16736349756393898
        },
        {
            "fpr": 0.36937590711175616,
            "tpr": 0.939297124600639,
            "threshold": 0.16277789070841955
        },
        {
            "fpr": 0.36937590711175616,
            "tpr": 0.9408945686900958,
            "threshold": 0.16267514399598418
        },
        {
            "fpr": 0.3788098693759071,
            "tpr": 0.9408945686900958,
            "threshold": 0.15752591282639555
        },
        {
            "fpr": 0.3788098693759071,
            "tpr": 0.9424920127795527,
            "threshold": 0.157426749557337
        },
        {
            "fpr": 0.3838896952104499,
            "tpr": 0.9424920127795527,
            "threshold": 0.15512851433061747
        },
        {
            "fpr": 0.3838896952104499,
            "tpr": 0.9440894568690096,
            "threshold": 0.15504611254179562
        },
        {
            "fpr": 0.3889695210449927,
            "tpr": 0.9440894568690096,
            "threshold": 0.1541951894734856
        },
        {
            "fpr": 0.3889695210449927,
            "tpr": 0.9456869009584664,
            "threshold": 0.1541011088473354
        },
        {
            "fpr": 0.3904208998548621,
            "tpr": 0.9456869009584664,
            "threshold": 0.15358715695293376
        },
        {
            "fpr": 0.3904208998548621,
            "tpr": 0.9472843450479234,
            "threshold": 0.1532554175501673
        },
        {
            "fpr": 0.4034833091436865,
            "tpr": 0.9472843450479234,
            "threshold": 0.14652934964542466
        },
        {
            "fpr": 0.4034833091436865,
            "tpr": 0.9488817891373802,
            "threshold": 0.14645024191692213
        },
        {
            "fpr": 0.4281567489114659,
            "tpr": 0.9488817891373802,
            "threshold": 0.13779114378051358
        },
        {
            "fpr": 0.4281567489114659,
            "tpr": 0.950479233226837,
            "threshold": 0.1375817053873487
        },
        {
            "fpr": 0.4506531204644412,
            "tpr": 0.950479233226837,
            "threshold": 0.12949693381485106
        },
        {
            "fpr": 0.4506531204644412,
            "tpr": 0.952076677316294,
            "threshold": 0.12936658333113205
        },
        {
            "fpr": 0.45428156748911463,
            "tpr": 0.952076677316294,
            "threshold": 0.12847251048767094
        },
        {
            "fpr": 0.45428156748911463,
            "tpr": 0.9536741214057508,
            "threshold": 0.12832490578949252
        },
        {
            "fpr": 0.46226415094339623,
            "tpr": 0.9536741214057508,
            "threshold": 0.12578297110393896
        },
        {
            "fpr": 0.46226415094339623,
            "tpr": 0.9552715654952076,
            "threshold": 0.1254677053780147
        },
        {
            "fpr": 0.46879535558780844,
            "tpr": 0.9552715654952076,
            "threshold": 0.12307467971036033
        },
        {
            "fpr": 0.46879535558780844,
            "tpr": 0.9568690095846646,
            "threshold": 0.123016111883674
        },
        {
            "fpr": 0.4746008708272859,
            "tpr": 0.9568690095846646,
            "threshold": 0.12044686356734223
        },
        {
            "fpr": 0.4746008708272859,
            "tpr": 0.9584664536741214,
            "threshold": 0.11991367633488423
        },
        {
            "fpr": 0.4869375907111756,
            "tpr": 0.9584664536741214,
            "threshold": 0.11484739655598857
        },
        {
            "fpr": 0.4869375907111756,
            "tpr": 0.9600638977635783,
            "threshold": 0.11477973256242492
        },
        {
            "fpr": 0.5043541364296081,
            "tpr": 0.9600638977635783,
            "threshold": 0.11144762378255603
        },
        {
            "fpr": 0.5043541364296081,
            "tpr": 0.9616613418530351,
            "threshold": 0.11069239380371332
        },
        {
            "fpr": 0.5362844702467344,
            "tpr": 0.9616613418530351,
            "threshold": 0.10317801162357755
        },
        {
            "fpr": 0.5362844702467344,
            "tpr": 0.9680511182108626,
            "threshold": 0.10254191376413331
        },
        {
            "fpr": 0.5638606676342526,
            "tpr": 0.9680511182108626,
            "threshold": 0.09505504500451285
        },
        {
            "fpr": 0.5638606676342526,
            "tpr": 0.9696485623003195,
            "threshold": 0.09464826948488014
        },
        {
            "fpr": 0.5653120464441219,
            "tpr": 0.9696485623003195,
            "threshold": 0.09435084104159525
        },
        {
            "fpr": 0.5653120464441219,
            "tpr": 0.9712460063897763,
            "threshold": 0.0942976161308958
        },
        {
            "fpr": 0.6030478955007257,
            "tpr": 0.9712460063897763,
            "threshold": 0.08527759917423278
        },
        {
            "fpr": 0.6030478955007257,
            "tpr": 0.9728434504792333,
            "threshold": 0.08520721804071413
        },
        {
            "fpr": 0.6226415094339622,
            "tpr": 0.9728434504792333,
            "threshold": 0.08062693080115636
        },
        {
            "fpr": 0.6226415094339622,
            "tpr": 0.9744408945686901,
            "threshold": 0.08054277905636567
        },
        {
            "fpr": 0.6262699564586357,
            "tpr": 0.9744408945686901,
            "threshold": 0.07979161141320298
        },
        {
            "fpr": 0.6262699564586357,
            "tpr": 0.9760383386581469,
            "threshold": 0.07973951412212411
        },
        {
            "fpr": 0.6422351233671988,
            "tpr": 0.9760383386581469,
            "threshold": 0.07533874628052571
        },
        {
            "fpr": 0.6422351233671988,
            "tpr": 0.9776357827476039,
            "threshold": 0.07502463680813158
        },
        {
            "fpr": 0.6480406386066764,
            "tpr": 0.9776357827476039,
            "threshold": 0.07332262959653012
        },
        {
            "fpr": 0.6480406386066764,
            "tpr": 0.9792332268370607,
            "threshold": 0.07331615012159409
        },
        {
            "fpr": 0.6589259796806967,
            "tpr": 0.9792332268370607,
            "threshold": 0.07135666760530351
        },
        {
            "fpr": 0.6589259796806967,
            "tpr": 0.9808306709265175,
            "threshold": 0.07134346846799954
        },
        {
            "fpr": 0.6640058055152395,
            "tpr": 0.9808306709265175,
            "threshold": 0.06897708825107611
        },
        {
            "fpr": 0.6640058055152395,
            "tpr": 0.9824281150159745,
            "threshold": 0.06877697665756252
        },
        {
            "fpr": 0.6654571843251088,
            "tpr": 0.9824281150159745,
            "threshold": 0.06854766921361595
        },
        {
            "fpr": 0.6654571843251088,
            "tpr": 0.9840255591054313,
            "threshold": 0.06850796942813443
        },
        {
            "fpr": 0.6661828737300436,
            "tpr": 0.9840255591054313,
            "threshold": 0.06849454057184345
        },
        {
            "fpr": 0.6741654571843251,
            "tpr": 0.9840255591054313,
            "threshold": 0.06838415503906475
        },
        {
            "fpr": 0.6923076923076923,
            "tpr": 0.9840255591054313,
            "threshold": 0.06368280298032641
        },
        {
            "fpr": 0.6923076923076923,
            "tpr": 0.987220447284345,
            "threshold": 0.063206560969816
        },
        {
            "fpr": 0.7010159651669086,
            "tpr": 0.987220447284345,
            "threshold": 0.061234404649418955
        },
        {
            "fpr": 0.7010159651669086,
            "tpr": 0.9888178913738019,
            "threshold": 0.061180464711890876
        },
        {
            "fpr": 0.7271407837445574,
            "tpr": 0.9888178913738019,
            "threshold": 0.0547525184880093
        },
        {
            "fpr": 0.7271407837445574,
            "tpr": 0.9904153354632588,
            "threshold": 0.054535974457075566
        },
        {
            "fpr": 0.7307692307692307,
            "tpr": 0.9904153354632588,
            "threshold": 0.053664401926685396
        },
        {
            "fpr": 0.7322206095791002,
            "tpr": 0.9904153354632588,
            "threshold": 0.05324052959413125
        },
        {
            "fpr": 0.7728592162554426,
            "tpr": 0.9904153354632588,
            "threshold": 0.044227765934657236
        },
        {
            "fpr": 0.7728592162554426,
            "tpr": 0.9920127795527156,
            "threshold": 0.0439241971045424
        },
        {
            "fpr": 0.7997097242380261,
            "tpr": 0.9920127795527156,
            "threshold": 0.038642925954964345
        },
        {
            "fpr": 0.7997097242380261,
            "tpr": 0.9936102236421726,
            "threshold": 0.03841509982522539
        },
        {
            "fpr": 0.8018867924528302,
            "tpr": 0.9936102236421726,
            "threshold": 0.038174390905686924
        },
        {
            "fpr": 0.8018867924528302,
            "tpr": 0.9952076677316294,
            "threshold": 0.038083005225209646
        },
        {
            "fpr": 0.8156748911465893,
            "tpr": 0.9952076677316294,
            "threshold": 0.03551918287755313
        },
        {
            "fpr": 0.8156748911465893,
            "tpr": 0.9968051118210862,
            "threshold": 0.03527266596149413
        },
        {
            "fpr": 0.9056603773584906,
            "tpr": 0.9968051118210862,
            "threshold": 0.01844668068760911
        },
        {
            "fpr": 0.9056603773584906,
            "tpr": 0.9984025559105432,
            "threshold": 0.018381927543184837
        },
        {
            "fpr": 0.951378809869376,
            "tpr": 0.9984025559105432,
            "threshold": 0.010143589743589745
        },
        {
            "fpr": 0.951378809869376,
            "tpr": 1.0,
            "threshold": 0.00946086853907111
        },
        {
            "fpr": 0.9985486211901307,
            "tpr": 1.0,
            "threshold": 0.000449438202247191
        },
        {
            "fpr": 1.0,
            "tpr": 1.0,
            "threshold": 0.0
        }
    ]
}